…
``` r
data <- iris %>% tibble
```

### Create, modify and delete columns

`mutate` is the command to deal with whole column operations. You can
easily add or delete columns

``` r
data %>%
  mutate(Genus = "Iris data set", Sepal.Length = NULL)
```

    ## # A tibble: 150 × 5
    ##    Sepal.Width Petal.Length Petal.Width Species Genus        
    ##          <dbl>        <dbl>       <dbl> <fct>   <chr>        
    ##  1         3.5          1.4         0.2 setosa  Iris data set
    ##  2         3            1.4         0.2 setosa  Iris data set
    ##  3         3.2          1.3         0.2 setosa  Iris data set
    ##  4         3.1          1.5         0.2 setosa  Iris data set
    ##  5         3.6          1.4         0.2 setosa  Iris data set
    ##  6         3.9          1.7         0.4 setosa  Iris data set
    ##  7         3.4          1.4         0.3 setosa  Iris data set
    ##  8         3.4          1.5         0.2 setosa  Iris data set
    ##  9         2.9          1.4         0.2 setosa  Iris data set
    ## 10         3.1          1.5         0.1 setosa  Iris data set
    ## # … with 140 more rows

Additionally it is possible to create new columns or modify them:

``` r
data %>% 
  mutate(isbig = Sepal.Length > 4)
```

    ## # A tibble: 150 × 6
    ##    Sepal.Length Sepal.Width Petal.Length Petal.Width Species isbig
    ##           <dbl>       <dbl>        <dbl>       <dbl> <fct>   <lgl>
    ##  1          5.1         3.5          1.4         0.2 setosa  TRUE 
    ##  2          4.9         3            1.4         0.2 setosa  TRUE 
    ##  3          4.7         3.2          1.3         0.2 setosa  TRUE 
    ##  4          4.6         3.1          1.5         0.2 setosa  TRUE 
    ##  5          5           3.6          1.4         0.2 setosa  TRUE 
    ##  6          5.4         3.9          1.7         0.4 setosa  TRUE 
    ##  7          4.6         3.4          1.4         0.3 setosa  TRUE 
    ##  8          5           3.4          1.5         0.2 setosa  TRUE 
    ##  9          4.4         2.9          1.4         0.2 setosa  TRUE 
    ## 10          4.9         3.1          1.5         0.1 setosa  TRUE 
    ## # … with 140 more rows
**Exercise** \* Create a tibble with Sepal leave data only, but numbers
are in inches \* Create a tibble, with an additional column
`bigger than mean`, which shows if a Sepal leave is wider than the mean
value

### Filtering

`filter`is the command to filter data

``` r
data %>%
  filter(Species == "virginica")
```

    ## # A tibble: 50 × 5
    ##    Sepal.Length Sepal.Width Petal.Length Petal.Width Species  
    ##           <dbl>       <dbl>        <dbl>       <dbl> <fct>    
    ##  1          6.3         3.3          6           2.5 virginica
    ##  2          5.8         2.7          5.1         1.9 virginica
    ##  3          7.1         3            5.9         2.1 virginica
    ##  4          6.3         2.9          5.6         1.8 virginica
    ##  5          6.5         3            5.8         2.2 virginica
    ##  6          7.6         3            6.6         2.1 virginica
    ##  7          4.9         2.5          4.5         1.7 virginica
    ##  8          7.3         2.9          6.3         1.8 virginica
    ##  9          6.7         2.5          5.8         1.8 virginica
    ## 10          7.2         3.6          6.1         2.5 virginica
    ## # … with 40 more rows

Here you really need to pay attention about the datatype. Also it is
important ot use the comparison `==` and not the simple equality sign
`=`

Another suitable function is `select` which concentrates the output to
specific coloums:

``` r
data %>%
  select(Petal.Length)
```

    ## # A tibble: 150 × 1
    ##    Petal.Length
    ##           <dbl>
    ##  1          1.4
    ##  2          1.4
    ##  3          1.3
    ##  4          1.5
    ##  5          1.4
    ##  6          1.7
    ##  7          1.4
    ##  8          1.5
    ##  9          1.4
    ## 10          1.5
    ## # … with 140 more rows

Both together can be used to limit the output:

``` r
data %>%
  filter(Species == "setosa") %>%
  select(Petal.Length, Petal.Width)
```

    ## # A tibble: 50 × 2
    ##    Petal.Length Petal.Width
    ##           <dbl>       <dbl>
    ##  1          1.4         0.2
    ##  2          1.4         0.2
    ##  3          1.3         0.2
    ##  4          1.5         0.2
    ##  5          1.4         0.2
    ##  6          1.7         0.4
    ##  7          1.4         0.3
    ##  8          1.5         0.2
    ##  9          1.4         0.2
    ## 10          1.5         0.1
    ## # … with 40 more rows
…
- How could we pivot the data?

- How is the following data managed?

``` r
wdi_data_piv <- wdi_data %>%
  pivot_longer(`1960`:`2020`,
               names_to = "Year",
               values_drop_na = TRUE) %>%
  mutate(Year = as.integer(Year)) %>%
  pivot_wider(id_cols = c("Country Code", "Year"), names_from = "Indicator Code")
wdi_data_piv
```

    ## # A tibble: 16,165 × 1,444
    ##    `Country Code`  Year EG.CFT…¹ EG.CF…² EG.CF…³ EG.EL…⁴ EG.EL…⁵ EG.EL…⁶ NY.AD…⁷
    ##    <chr>          <int>    <dbl>   <dbl>   <dbl>   <dbl>   <dbl>   <dbl>   <dbl>
    ##  1 AFE             2000     11.4    3.50    32.3    19.8    8.47    53.6   NA   
    ##  2 AFE             2001     11.8    3.69    32.7    19.9   NA       53.2   NA   
    ##  3 AFE             2002     12.2    3.85    33.1    21.5   NA       55.3   NA   
    ##  4 AFE             2003     12.5    4.07    33.7    22.5    9.70    56.3    4.95
    ##  5 AFE             2004     12.9    4.31    34.2    23.8   10.9     57.0    4.78
    ##  6 AFE             2005     13.4    4.54    34.7    23.5   10.4     58.1    8.13
    ##  7 AFE             2006     13.9    4.83    35.2    24.8   12.4     58.7    8.65
    ##  8 AFE             2007     14.3    5.04    35.9    26.8   12.4     60.9    2.92
    ##  9 AFE             2008     14.8    5.31    36.2    25.9   12.9     59.0   -3.12
    ## 10 AFE             2009     15.2    5.54    36.7    26.2   15.3     61.4    6.06
    ## # … with 16,155 more rows, 1,435 more variables: NY.ADJ.NNTY.KD <dbl>,
    ## #   NY.ADJ.NNTY.CD <dbl>, NY.ADJ.NNTY.PC.KD.ZG <dbl>, NY.ADJ.NNTY.PC.KD <dbl>,
    ## #   NY.ADJ.NNTY.PC.CD <dbl>, NY.ADJ.SVNX.GN.ZS <dbl>, NY.ADJ.SVNG.GN.ZS <dbl>,
    ## #   NY.ADJ.DCO2.GN.ZS <dbl>, NY.ADJ.DKAP.GN.ZS <dbl>, NY.ADJ.AEDU.GN.ZS <dbl>,
    ## #   NY.ADJ.DNGY.GN.ZS <dbl>, NY.ADJ.ICTR.GN.ZS <dbl>, NY.ADJ.DMIN.GN.ZS <dbl>,
    ## #   NY.ADJ.DRES.GN.ZS <dbl>, NY.ADJ.DFOR.GN.ZS <dbl>, NY.ADJ.NNAT.GN.ZS <dbl>,
    ## #   NY.ADJ.DPEM.GN.ZS <dbl>, SP.ADO.TFRT <dbl>, SP.POP.DPND <dbl>, …
…
